digraph frameworksTiers {
  node [shape=diamond,fillcolor=lightblue,style=filled];
  "baloo-kf5";
  "bluez-qt";
  "frameworkintegration";
  "kactivities-stats";
  "kcalcore";
  "kcmutils";
  "kcontacts";
  "kdav";
  "kdelibs4support";
  "kdesu";
  "kdewebkit";
  "kdnssd-kf5";
  "kholidays";
  "khtml";
  "kimageformats";
  "kinit";
  "kitemmodels";
  "kjsembed";
  "kmediaplayer";
  "knotifyconfig";
  "kpeople";
  "kplotting";
  "kquickcharts";
  "kross";
  "krunner";
  "ktexteditor";
  "kxmlrpcclient";
  "modemmanager-qt";
  "networkmanager-qt";
  "oxygen-icons5";
  "prison-kf5";
  "purpose";
  "qqc2-desktop-style";
  node [shape=ellipse,fillcolor=darkgreen,style=filled];
  "extra-cmake-modules";
  "kapidox";
  node [shape=ellipse,fillcolor=white,style=filled];
  subgraph cluster_0 {
    style=filled;
    color=lightgrey;
    label = "Tier 0";
    "extra-cmake-modules";
    "kapidox";
  }
  "extra-cmake-modules" -> "attica-kf5";
  "extra-cmake-modules" -> "bluez-qt";
  "extra-cmake-modules" -> "breeze-icons";
  "extra-cmake-modules" -> "karchive";
  "extra-cmake-modules" -> "kcalcore";
  "extra-cmake-modules" -> "kcodecs";
  "extra-cmake-modules" -> "kconfig";
  "extra-cmake-modules" -> "kcoreaddons";
  "extra-cmake-modules" -> "kdbusaddons";
  "extra-cmake-modules" -> "kdnssd-kf5";
  "extra-cmake-modules" -> "kguiaddons";
  "extra-cmake-modules" -> "kholidays";
  "extra-cmake-modules" -> "ki18n";
  "extra-cmake-modules" -> "kidletime";
  "extra-cmake-modules" -> "kitemmodels";
  "extra-cmake-modules" -> "kitemviews";
  "extra-cmake-modules" -> "kplotting";
  "extra-cmake-modules" -> "ksyntax-highlighting";
  "extra-cmake-modules" -> "kwayland";
  "extra-cmake-modules" -> "kwidgetsaddons";
  "extra-cmake-modules" -> "kwindowsystem";
  "extra-cmake-modules" -> "modemmanager-qt";
  "extra-cmake-modules" -> "networkmanager-qt";
  "extra-cmake-modules" -> "oxygen-icons5";
  "extra-cmake-modules" -> "prison-kf5";
  "extra-cmake-modules" -> "solid";
  "extra-cmake-modules" -> "sonnet";
  "extra-cmake-modules" -> "threadweaver";
  subgraph cluster_1 {
    style=filled;
    color=lightgrey;
    label = "Tier 1";
    "attica-kf5";
    "bluez-qt";
    "breeze-icons";
    "karchive";
    "kcalcore";
    "kcodecs";
    "kconfig";
    "kcoreaddons";
    "kdbusaddons";
    "kdnssd-kf5";
    "kguiaddons";
    "kholidays";
    "ki18n";
    "kidletime";
    "kitemmodels";
    "kitemviews";
    "kplotting";
    "ksyntax-highlighting";
    "kwayland";
    "kwidgetsaddons";
    "kwindowsystem";
    "modemmanager-qt";
    "networkmanager-qt";
    "oxygen-icons5";
    "prison-kf5";
    "solid";
    "sonnet";
    "threadweaver";
  }
  "karchive" -> "kdoctools";
  "karchive" -> "kfilemetadata-kf5";
  "karchive" -> "kimageformats";
  "kcodecs" -> "kcontacts";
  "kcodecs" -> "syndication";
  "kconfig" -> "kactivities-kf5";
  "kconfig" -> "kcompletion";
  "kconfig" -> "kcontacts";
  "kconfig" -> "knotifications";
  "kcoreaddons" -> "kactivities-kf5";
  "kcoreaddons" -> "kauth";
  "kcoreaddons" -> "kcontacts";
  "kcoreaddons" -> "kcrash";
  "kcoreaddons" -> "kfilemetadata-kf5";
  "kcoreaddons" -> "kjobwidgets";
  "kcoreaddons" -> "knotifications";
  "kcoreaddons" -> "kpeople";
  "kcoreaddons" -> "kpty";
  "ki18n" -> "kcontacts";
  "ki18n" -> "kdoctools";
  "ki18n" -> "kfilemetadata-kf5";
  "ki18n" -> "kpeople";
  "ki18n" -> "kpty";
  "ki18n" -> "kunitconversion";
  "kitemviews" -> "kpeople";
  "kwidgetsaddons" -> "kcompletion";
  "kwidgetsaddons" -> "kjobwidgets";
  "kwidgetsaddons" -> "kpeople";
  "kwindowsystem" -> "kactivities-kf5";
  "kwindowsystem" -> "kcrash";
  "kwindowsystem" -> "knotifications";
  subgraph cluster_2 {
    style=filled;
    color=lightgrey;
    label = "Tier 2";
    "kactivities-kf5";
    "kauth";
    "kcompletion";
    "kcontacts";
    "kcrash";
    "kdoctools";
    "kfilemetadata-kf5";
    "kimageformats";
    "kjobwidgets";
    "knotifications";
    "kpeople";
    "kpty";
    "kunitconversion";
    "syndication";
  }
  "kactivities-kf5" -> "kactivities-stats";
  "kauth" -> "kconfigwidgets";
  "kcrash" -> "kglobalaccel";
  "kcrash" -> "kservice";
  "kdoctools" -> "kconfigwidgets";
  "kdoctools" -> "kdesignerplugin";
  "kdoctools" -> "kjs";
  "kdoctools" -> "kpackage";
  "kdoctools" -> "kservice";
  subgraph cluster_3 {
    style=filled;
    color=lightgrey;
    label = "Tier 3";
    "kactivities-stats";
    "kconfigwidgets";
    "kdesignerplugin";
    "kglobalaccel";
    "kjs";
    "kpackage";
    "kservice";
  }
  "kconfigwidgets" -> "kiconthemes";
  "kconfigwidgets" -> "ktextwidgets";
  "kconfigwidgets" -> "kwallet-kf5";
  "kjs" -> "kjsembed";
  "kpackage" -> "kirigami2";
  "kservice" -> "kded";
  "kservice" -> "kdesu";
  "kservice" -> "kemoticons";
  "kservice" -> "kwallet-kf5";
  subgraph cluster_4 {
    style=filled;
    color=lightgrey;
    label = "Tier 4";
    "kded";
    "kdesu";
    "kemoticons";
    "kiconthemes";
    "kirigami2";
    "kjsembed";
    "ktextwidgets";
    "kwallet-kf5";
  }
  "kiconthemes" -> "kxmlgui";
  "kiconthemes" -> "qqc2-desktop-style";
  "kirigami2" -> "qqc2-desktop-style";
  subgraph cluster_5 {
    style=filled;
    color=lightgrey;
    label = "Tier 5";
    "kxmlgui";
    "qqc2-desktop-style";
  }
  "kxmlgui" -> "kbookmarks";
  subgraph cluster_6 {
    style=filled;
    color=lightgrey;
    label = "Tier 6";
    "kbookmarks";
  }
  "kbookmarks" -> "kio";
  subgraph cluster_7 {
    style=filled;
    color=lightgrey;
    label = "Tier 7";
    "kio";
  }
  "kio" -> "baloo-kf5";
  "kio" -> "kdav";
  "kio" -> "kdeclarative";
  "kio" -> "kinit";
  "kio" -> "knewstuff";
  "kio" -> "knotifyconfig";
  "kio" -> "kparts";
  "kio" -> "kxmlrpcclient";
  "kio" -> "purpose";
  subgraph cluster_8 {
    style=filled;
    color=lightgrey;
    label = "Tier 8";
    "baloo-kf5";
    "kdav";
    "kdeclarative";
    "kinit";
    "knewstuff";
    "knotifyconfig";
    "kparts";
    "kxmlrpcclient";
    "purpose";
  }
  "kdeclarative" -> "kcmutils";
  "kdeclarative" -> "kquickcharts";
  "kdeclarative" -> "plasma-framework";
  "knewstuff" -> "frameworkintegration";
  "kparts" -> "kdelibs4support";
  "kparts" -> "kdewebkit";
  "kparts" -> "khtml";
  "kparts" -> "kmediaplayer";
  "kparts" -> "kross";
  "kparts" -> "ktexteditor";
  "kparts" -> "plasma-framework";
  subgraph cluster_9 {
    style=filled;
    color=lightgrey;
    label = "Tier 9";
    "frameworkintegration";
    "kcmutils";
    "kdelibs4support";
    "kdewebkit";
    "khtml";
    "kmediaplayer";
    "kquickcharts";
    "kross";
    "ktexteditor";
    "plasma-framework";
  }
  "plasma-framework" -> "krunner";
  subgraph cluster_10 {
    style=filled;
    color=lightgrey;
    label = "Tier 10";
    "krunner";
  }
}