digraph pimTiers {
  node [shape=diamond,fillcolor=lightblue,style=filled];
  "akonadi-calendar-tools";
  "akonadiconsole";
  "akregator";
  "grantlee-editor";
  "kalarm";
  "kalendar";
  "kdepim-addons";
  "kdepim-runtime";
  "kleopatra";
  "kmail";
  "kmail-account-wizard";
  "knotes";
  "kontact";
  "korganizer";
  "mbox-importer";
  "pim-data-exporter";
  "pim-sieve-editor";
  node [shape=ellipse,fillcolor=darkgreen,style=filled];
  "akonadi";
  "kldap";
  "kmime";
  "kontactinterface";
  "kpimtextedit";
  "kpkpass";
  "ksmtp";
  "grantleetheme";
  "libkdepim";
  "libkgapi";
  node [shape=ellipse,fillcolor=white,style=filled];
  subgraph cluster_0 {
    style=filled;
    color=lightgrey;
    label = "Tier 0";
    "akonadi";
    "kldap";
    "kmime";
    "kontactinterface";
    "kpimtextedit";
    "kpkpass";
    "ksmtp";
    "grantleetheme";
    "libkdepim";
    "libkgapi";
  }
  "akonadi" -> "akonadi-mime";
  "kmime" -> "akonadi-mime";
  "kmime" -> "akonadi-notes";
  "kmime" -> "kimap";
  "kmime" -> "kitinerary";
  "kmime" -> "kmbox";
  "kpimtextedit" -> "kidentitymanagement";
  "kpimtextedit" -> "libkleo";
  "kpkpass" -> "kitinerary";
  subgraph cluster_1 {
    style=filled;
    color=lightgrey;
    label = "Tier 1";
    "akonadi-mime";
    "akonadi-notes";
    "kidentitymanagement";
    "kimap";
    "kitinerary";
    "kmbox";
    "libkleo";
  }
  "akonadi-mime" -> "akonadi-search";
  "akonadi-mime" -> "kmailtransport";
  "kidentitymanagement" -> "kcalutils";
  "libkleo" -> "akonadi-contacts";
  "libkleo" -> "kleopatra";
  subgraph cluster_2 {
    style=filled;
    color=lightgrey;
    label = "Tier 2";
    "akonadi-contacts";
    "akonadi-search";
    "kcalutils";
    "kleopatra";
    "kmailtransport";
  }
  "akonadi-contacts" -> "akonadi-calendar";
  "akonadi-contacts" -> "pimcommon";
  "akonadi-search" -> "pimcommon";
  "kcalutils" -> "akonadi-calendar";
  "kcalutils" -> "ktnef";
  "kmailtransport" -> "akonadi-calendar";
  subgraph cluster_3 {
    style=filled;
    color=lightgrey;
    label = "Tier 3";
    "akonadi-calendar";
    "ktnef";
    "pimcommon";
  }
  "akonadi-calendar" -> "kdepim-runtime";
  "akonadi-calendar" -> "calendarsupport";
  "pimcommon" -> "kaddressbook";
  "pimcommon" -> "kmail-account-wizard";
  "pimcommon" -> "knotes";
  "pimcommon" -> "kontact";
  "pimcommon" -> "calendarsupport";
  "pimcommon" -> "libgravatar";
  "pimcommon" -> "libksieve";
  "pimcommon" -> "mailimporter";
  subgraph cluster_4 {
    style=filled;
    color=lightgrey;
    label = "Tier 4";
    "kaddressbook";
    "kdepim-runtime";
    "kmail-account-wizard";
    "knotes";
    "kontact";
    "calendarsupport";
    "libgravatar";
    "libksieve";
    "mailimporter";
  }
  "calendarsupport" -> "akonadi-calendar-tools";
  "calendarsupport" -> "eventviews";
  "libgravatar" -> "messagelib";
  "libksieve" -> "pim-sieve-editor";
  subgraph cluster_5 {
    style=filled;
    color=lightgrey;
    label = "Tier 5";
    "akonadi-calendar-tools";
    "messagelib";
    "eventviews";
    "pim-sieve-editor";
  }
  "messagelib" -> "akonadiconsole";
  "messagelib" -> "akregator";
  "messagelib" -> "grantlee-editor";
  "messagelib" -> "mailcommon";
  "eventviews" -> "kalendar";
  "eventviews" -> "incidenceeditor";
  subgraph cluster_6 {
    style=filled;
    color=lightgrey;
    label = "Tier 6";
    "akonadiconsole";
    "akregator";
    "grantlee-editor";
    "kalendar";
    "incidenceeditor";
    "mailcommon";
  }
  "incidenceeditor" -> "korganizer";
  "mailcommon" -> "akonadi-import-wizard";
  "mailcommon" -> "kalarm";
  "mailcommon" -> "kmail";
  "mailcommon" -> "mbox-importer";
  "mailcommon" -> "pim-data-exporter";
  subgraph cluster_7 {
    style=filled;
    color=lightgrey;
    label = "Tier 7";
    "akonadi-import-wizard";
    "kalarm";
    "kmail";
    "korganizer";
    "mbox-importer";
    "pim-data-exporter";
  }
  "akonadi-import-wizard" -> "kdepim-addons";
  subgraph cluster_8 {
    style=filled;
    color=lightgrey;
    label = "Tier 8";
    "kdepim-addons";
  }
}